{
  "ucenici": [
    {
      "imePrezime": "STOLE Mazgic",
      "id": 1,
      "odeljenjeID": 1,
      "rubrika": {
        "matematika": [
          3,
          2,
          2,
          1
        ],
        "srpskiJezik": [
          4
        ],
        "informatika": [
          5
        ]
      }
    },
    {
      "imePrezime": "Vladimir Klekic",
      "id": 2,
      "odeljenjeID": 1,
      "rubrika": {
        "matematika": [
          3,
          3
        ],
        "srpskiJezik": [
          1
        ],
        "informatika": [
          4
        ]
      }
    },
    {
      "imePrezime": "Milan Kostic",
      "id": 3,
      "odeljenjeID": 1,
      "rubrika": {
        "matematika": [
          2,
          2,
          1,
          1,
          1
        ],
        "srpskiJezik": [
          3,
          3,
          3
        ],
        "informatika": [
          5,
          2,
          2,
          2,
          4
        ]
      }
    },
    {
      "imePrezime": "Predrag Markovic",
      "id": 4,
      "odeljenjeID": 1,
      "rubrika": {
        "matematika": [
          5,
          5,
          5,
          5
        ],
        "srpskiJezik": [
          5,
          5,
          5,
          4,
          4
        ],
        "informatika": [
          3,
          4,
          5,
          5,
          5
        ]
      }
    },
    {
      "imePrezime": "Milos Pavlovic",
      "id": 5,
      "odeljenjeID": 1,
      "rubrika": {
        "matematika": [
          5,
          3,
          3,
          2
        ],
        "srpskiJezik": [
          2,
          2,
          4
        ],
        "informatika": [
          2,
          5,
          5
        ]
      }
    },
    {
      "imePrezime": "Milan Kostic",
      "id": 6,
      "odeljenjeID": 2,
      "rubrika": {
        "matematika": [
          3,
          1,
          2
        ],
        "srpskiJezik": [
          4,
          3,
          4
        ],
        "informatika": [
          5,
          5,
          4,
          5
        ]
      }
    },
    {
      "imePrezime": "Zoran Petkovic",
      "id": 7,
      "odeljenjeID": 2,
      "rubrika": {
        "matematika": [
          4,
          4,
          5,
          3
        ],
        "srpskiJezik": [
          3,
          3,
          5,
          4,
          5
        ],
        "informatika": [
          3,
          4,
          5,
          5
        ]
      }
    },
    {
      "imePrezime": "Bogdan Filipovic",
      "id": 8,
      "odeljenjeID": 2,
      "rubrika": {
        "matematika": [
          1,
          1,
          1
        ],
        "srpskiJezik": [
          1,
          2,
          1,
          3
        ],
        "informatika": [
          2,
          2,
          2,
          2
        ]
      }
    },
    {
      "imePrezime": "Aleksandar Ciric",
      "id": 9,
      "odeljenjeID": 2,
      "rubrika": {
        "matematika": [
          3,
          4,
          4,
          4
        ],
        "srpskiJezik": [
          4,
          5
        ],
        "informatika": [
          3,
          4,
          5,
          5
        ]
      }
    },
    {
      "imePrezime": "Marko Obradovic",
      "id": 10,
      "odeljenjeID": 2,
      "rubrika": {
        "matematika": [
          1,
          1,
          2,
          4
        ],
        "srpskiJezik": [
          4,
          5,
          3
        ],
        "informatika": [
          5,
          5,
          4,
          5
        ]
      }
    },
    {
      "imePrezime": "Sanja Marinkovic",
      "id": 11,
      "odeljenjeID": 3,
      "rubrika": {
        "matematika": [
          2,
          1,
          4,
          4
        ],
        "srpskiJezik": [
          4,
          4
        ],
        "informatika": [
          5,
          4,
          4,
          4,
          3
        ]
      }
    },
    {
      "imePrezime": "Petar Petrovic",
      "id": 12,
      "odeljenjeID": 3,
      "rubrika": {
        "matematika": [
          2,
          2,
          1,
          2,
          2
        ],
        "srpskiJezik": [
          5,
          2,
          4
        ],
        "informatika": [
          3,
          3,
          3,
          5
        ]
      }
    },
    {
      "imePrezime": "Mina Pavlovic",
      "id": 13,
      "odeljenjeID": 3,
      "rubrika": {
        "matematika": [
          1,
          4,
          3,
          3
        ],
        "srpskiJezik": [
          1,
          1,
          1,
          2
        ],
        "informatika": [
          5,
          5,
          3
        ]
      }
    },
    {
      "imePrezime": "Miodrag Jovanovic",
      "id": 14,
      "odeljenjeID": 3,
      "rubrika": {
        "matematika": [
          5,
          3,
          3,
          1
        ],
        "srpskiJezik": [
          3,
          3,
          2,
          1,
          2
        ],
        "informatika": [
          4,
          4,
          3,
          3
        ]
      }
    },
    {
      "imePrezime": "Ana Stojanovic",
      "id": 15,
      "odeljenjeID": 3,
      "rubrika": {
        "matematika": [
          2,
          3,
          3,
          3,
          1
        ],
        "srpskiJezik": [
          5,
          4,
          4
        ],
        "informatika": [
          2,
          3
        ]
      }
    },
    {
      "imePrezime": "Stefan Miljkovic",
      "id": 16,
      "odeljenjeID": 4,
      "rubrika": {
        "matematika": [
          1,
          2,
          3
        ],
        "srpskiJezik": [
          3,
          3,
          3,
          3,
          4
        ],
        "informatika": [
          5,
          5,
          5,
          4
        ]
      }
    },
    {
      "imePrezime": "Marko Djokovic",
      "id": 17,
      "odeljenjeID": 4,
      "rubrika": {
        "matematika": [
          5,
          5,
          4,
          4,
          4
        ],
        "srpskiJezik": [
          3,
          3,
          3,
          4,
          2
        ],
        "informatika": [
          5,
          2,
          4,
          4,
          3
        ]
      }
    },
    {
      "imePrezime": "Miljan Stefanovic",
      "id": 18,
      "odeljenjeID": 4,
      "rubrika": {
        "matematika": [
          1,
          1,
          2,
          2,
          2
        ],
        "srpskiJezik": [
          3,
          2,
          2,
          2
        ],
        "informatika": [
          5,
          4,
          4
        ]
      }
    },
    {
      "imePrezime": "Milos Carapic",
      "id": 19,
      "odeljenjeID": 4,
      "rubrika": {
        "matematika": [
          4,
          4,
          2,
          5
        ],
        "srpskiJezik": [
          2,
          2,
          2,
          3,
          3
        ],
        "informatika": [
          5,
          1,
          4
        ]
      }
    },
    {
      "imePrezime": "Marija Stankovic",
      "id": 20,
      "odeljenjeID": 4,
      "rubrika": {
        "matematika": [
          5,
          1,
          4,
          2,
          1
        ],
        "srpskiJezik": [
          3,
          1,
          3,
          2
        ],
        "informatika": [
          5,
          5,
          5,
          5,
          5
        ]
      }
    }
  ],
  "odeljenja": [
    {
      "id": 1,
      "naziv": "I-1"
    },
    {
      "id": 2,
      "naziv": "I-2"
    },
    {
      "id": 3,
      "naziv": "I-3"
    },
    {
      "id": 4,
      "naziv": "I-4"
    }
  ],
  "users": [
    {
      "username": "marija",
      "password": "0000",
      "imePrezime": "Marija Mitic",
      "predmet": "matematika"
    },
    {
      "username": "jelica",
      "password": "0001",
      "imePrezime": "Jelica Petrovic",
      "predmet": "srpskiJezik"
    },
    {
      "username": "boris",
      "password": "0002",
      "imePrezime": "Boris Kocic",
      "predmet": "informatika"
    }
  ]
}